<?xml version="1.0" encoding="utf-8"?>
<!-- Generator: Adobe Illustrator 15.1.0, SVG Export Plug-In . SVG Version: 6.00 Build 0)  -->
<!DOCTYPE svg PUBLIC "-//W3C//DTD SVG 1.1//EN" "http://www.w3.org/Graphics/SVG/1.1/DTD/svg11.dtd">
<svg version="1.1" id="Capa_1" xmlns="http://www.w3.org/2000/svg" xmlns:xlink="http://www.w3.org/1999/xlink" x="0px" y="0px"
	 width="227.992px" height="42.08px" viewBox="0 0 227.992 42.08" enable-background="new 0 0 227.992 42.08" xml:space="preserve">
<g>
	<defs>
		<rect id="SVGID_1_" width="227.992" height="42.08"/>
	</defs>
	<clipPath id="SVGID_2_">
		<use xlink:href="#SVGID_1_"  overflow="visible"/>
	</clipPath>
	<g clip-path="url(#SVGID_2_)">
		<defs>
			<rect id="SVGID_3_" width="227.992" height="42.08"/>
		</defs>
		<clipPath id="SVGID_4_">
			<use xlink:href="#SVGID_3_"  overflow="visible"/>
		</clipPath>
		<path clip-path="url(#SVGID_4_)" fill-rule="evenodd" clip-rule="evenodd" fill="#00F6D1" d="M25.272,2.582L40.86,29.578
			c1.986,3.442-0.522,7.787-4.496,7.787H5.19c-3.975,0-6.48-4.345-4.494-7.787L16.282,2.582C18.27-0.859,23.286-0.859,25.272,2.582"
			/>
		<g opacity="0.7" clip-path="url(#SVGID_4_)">
			<g>
				<defs>
					<rect id="SVGID_5_" x="15.521" width="41.557" height="37.365"/>
				</defs>
				<clipPath id="SVGID_6_">
					<use xlink:href="#SVGID_5_"  overflow="visible"/>
				</clipPath>
				<path clip-path="url(#SVGID_6_)" fill-rule="evenodd" clip-rule="evenodd" fill="#00C1FF" d="M40.793,2.582l15.588,26.997
					c1.986,3.442-0.523,7.787-4.494,7.787H20.711c-3.973,0-6.48-4.345-4.494-7.787L31.806,2.582
					C33.792-0.859,38.808-0.859,40.793,2.582"/>
			</g>
		</g>
		<g opacity="0.7" clip-path="url(#SVGID_4_)">
			<g>
				<defs>
					<rect id="SVGID_7_" x="32.201" width="41.557" height="37.365"/>
				</defs>
				<clipPath id="SVGID_8_">
					<use xlink:href="#SVGID_7_"  overflow="visible"/>
				</clipPath>
				<path clip-path="url(#SVGID_8_)" fill-rule="evenodd" clip-rule="evenodd" fill="#490EC8" d="M57.474,2.582l15.588,26.997
					c1.986,3.442-0.522,7.787-4.496,7.787H37.392c-3.975,0-6.48-4.345-4.494-7.787L48.484,2.582
					C50.472-0.859,55.488-0.859,57.474,2.582"/>
			</g>
		</g>
		<path clip-path="url(#SVGID_4_)" fill="#00C1FF" d="M86.701,23.959c-1.861-1.853-2.792-4.492-2.792-7.926V2.928h5.418v12.904
			c0,4.191,1.738,6.287,5.217,6.287c1.692,0,2.985-0.507,3.877-1.522c0.891-1.013,1.337-2.6,1.337-4.764V2.928h5.351v13.105
			c0,3.434-0.93,6.074-2.792,7.926c-1.861,1.85-4.465,2.772-7.808,2.772C91.165,26.731,88.562,25.809,86.701,23.959"/>
		<path clip-path="url(#SVGID_4_)" fill="#00C1FF" d="M127.228,10.08c1.369,1.34,2.057,3.321,2.057,5.954v10.297h-5.217v-9.494
			c0-1.427-0.313-2.491-0.937-3.196c-0.623-0.702-1.525-1.053-2.709-1.053c-1.313,0-2.362,0.409-3.142,1.222
			c-0.781,0.815-1.169,2.023-1.169,3.628v8.893h-5.217V8.341h4.981v2.109c0.691-0.758,1.55-1.344,2.576-1.758
			c1.024-0.411,2.148-0.616,3.378-0.616C124.055,8.076,125.856,8.743,127.228,10.08"/>
		<path clip-path="url(#SVGID_4_)" fill="#00C1FF" d="M135.069,4.999c-0.602-0.556-0.903-1.249-0.903-2.073
			c0-0.825,0.302-1.518,0.903-2.074c0.602-0.557,1.383-0.836,2.342-0.836c0.958,0,1.736,0.268,2.339,0.801
			c0.602,0.538,0.903,1.206,0.903,2.007c0,0.868-0.302,1.589-0.903,2.157c-0.603,0.568-1.381,0.852-2.339,0.852
			C136.452,5.833,135.671,5.556,135.069,4.999 M134.8,8.341h5.218v17.99H134.8V8.341z"/>
		<path clip-path="url(#SVGID_4_)" fill="#000351" d="M149.197,25.413c-1.527-0.792-2.722-1.889-3.578-3.295
			c-0.859-1.405-1.288-2.998-1.288-4.781c0-1.785,0.429-3.379,1.288-4.78c0.856-1.407,2.051-2.503,3.578-3.296
			c1.525-0.792,3.248-1.187,5.165-1.187c1.896,0,3.55,0.395,4.966,1.187c1.415,0.793,2.446,1.924,3.095,3.395l-4.047,2.173
			c-0.938-1.651-2.286-2.473-4.046-2.473c-1.361,0-2.487,0.443-3.378,1.337c-0.893,0.891-1.337,2.106-1.337,3.644
			s0.444,2.753,1.337,3.644c0.891,0.894,2.017,1.337,3.378,1.337c1.782,0,3.132-0.822,4.046-2.473l4.047,2.208
			c-0.648,1.424-1.68,2.54-3.095,3.341c-1.416,0.804-3.069,1.206-4.966,1.206C152.445,26.601,150.723,26.205,149.197,25.413"/>
		<rect x="166.099" y="1.522" clip-path="url(#SVGID_4_)" fill="#000351" width="5.218" height="24.809"/>
		<path clip-path="url(#SVGID_4_)" fill="#000351" d="M177.233,4.999c-0.602-0.556-0.9-1.249-0.9-2.073
			c0-0.825,0.299-1.518,0.9-2.074c0.602-0.557,1.383-0.836,2.342-0.836c0.958,0,1.738,0.268,2.342,0.801
			c0.599,0.538,0.902,1.206,0.902,2.007c0,0.868-0.304,1.589-0.902,2.157c-0.604,0.568-1.384,0.852-2.342,0.852
			C178.616,5.833,177.835,5.556,177.233,4.999 M176.965,8.341h5.217v17.99h-5.217V8.341z"/>
		<path clip-path="url(#SVGID_4_)" fill="#000351" d="M191.36,25.413c-1.525-0.792-2.72-1.889-3.576-3.295
			c-0.859-1.405-1.286-2.998-1.286-4.781c0-1.785,0.427-3.379,1.286-4.78c0.856-1.407,2.051-2.503,3.576-3.296
			c1.526-0.792,3.249-1.187,5.166-1.187c1.896,0,3.551,0.395,4.969,1.187c1.413,0.793,2.444,1.924,3.092,3.395l-4.046,2.173
			c-0.938-1.651-2.286-2.473-4.046-2.473c-1.361,0-2.488,0.443-3.379,1.337c-0.892,0.891-1.338,2.106-1.338,3.644
			s0.446,2.753,1.338,3.644c0.891,0.894,2.018,1.337,3.379,1.337c1.782,0,3.132-0.822,4.046-2.473l4.046,2.208
			c-0.647,1.424-1.679,2.54-3.092,3.341c-1.418,0.804-3.072,1.206-4.969,1.206C194.609,26.601,192.887,26.205,191.36,25.413"/>
		<polygon clip-path="url(#SVGID_4_)" fill="#000351" points="215.988,19.277 213.479,21.751 213.479,26.332 208.263,26.332 
			208.263,1.522 213.479,1.522 213.479,15.566 221.103,8.342 227.325,8.342 219.836,15.965 227.992,26.332 221.672,26.332 		"/>
		<path clip-path="url(#SVGID_4_)" fill="#000351" d="M182.367,36.578c0.008,0.04,0.011,0.091,0.011,0.157s-0.003,0.118-0.011,0.157
			c0,0.032-0.002,0.058-0.004,0.086c-0.005,0.027-0.005,0.06-0.005,0.099c-0.018,0.06-0.025,0.125-0.025,0.185
			c0,0.063-0.007,0.125-0.021,0.186c-0.007,0.032-0.012,0.059-0.012,0.087s-0.005,0.058-0.011,0.086
			c-0.024,0.085-0.044,0.168-0.063,0.245c-0.018,0.076-0.044,0.154-0.073,0.229c-0.106,0.273-0.235,0.516-0.389,0.73
			c-0.151,0.218-0.339,0.405-0.566,0.557c-0.113,0.076-0.226,0.144-0.331,0.196c-0.083,0.042-0.166,0.07-0.244,0.093
			c-0.081,0.025-0.162,0.048-0.245,0.069c-0.053,0.016-0.102,0.025-0.148,0.03c-0.044,0.005-0.091,0.014-0.137,0.029h-0.113
			c-0.038,0.017-0.095,0.023-0.171,0.028c-0.075,0.002-0.136-0.003-0.182-0.016h-0.113c-0.032-0.009-0.062-0.013-0.097-0.013
			s-0.072-0.005-0.109-0.012c-0.112-0.032-0.223-0.06-0.335-0.08c-0.109-0.023-0.217-0.06-0.324-0.104
			c-0.15-0.065-0.286-0.142-0.409-0.234c-0.044-0.036-0.09-0.078-0.137-0.122c-0.047-0.042-0.1-0.072-0.158-0.085
			c-0.047-0.01-0.081,0-0.107,0.027c-0.028,0.027-0.046,0.064-0.057,0.11c-0.013,0.047-0.022,0.096-0.024,0.144
			c-0.004,0.053-0.013,0.088-0.03,0.111c-0.026,0.038-0.063,0.073-0.101,0.104c-0.038,0.016-0.09,0.025-0.155,0.03
			c-0.062,0.005-0.132,0.007-0.203,0.007s-0.139-0.007-0.198-0.02c-0.061-0.011-0.106-0.024-0.14-0.041
			c-0.013-0.014-0.026-0.031-0.044-0.058c-0.015-0.022-0.028-0.046-0.046-0.067c-0.02-0.064-0.032-0.156-0.027-0.278
			c0.002-0.122,0.008-0.229,0.008-0.313v-6.801c0-0.095-0.006-0.192-0.008-0.293c-0.005-0.107,0.015-0.19,0.052-0.252
			c0.029-0.044,0.081-0.086,0.146-0.115c0.018,0,0.035-0.003,0.059-0.007c0.021-0.003,0.042-0.005,0.056-0.005
			c0.105-0.007,0.219-0.009,0.337-0.004c0.118,0.001,0.199,0.034,0.243,0.096c0.039,0.063,0.057,0.151,0.057,0.261v0.319v1.354
			v0.191c0,0.076,0.002,0.148,0.007,0.222c0.002,0.071,0.013,0.139,0.023,0.196c0.009,0.059,0.033,0.1,0.06,0.122
			c0.032,0.024,0.068,0.028,0.104,0.012c0.037-0.014,0.069-0.029,0.09-0.046c0.04-0.029,0.077-0.062,0.109-0.093
			c0.033-0.032,0.07-0.062,0.107-0.092c0.054-0.04,0.109-0.074,0.164-0.106c0.059-0.027,0.118-0.061,0.178-0.093
			c0.137-0.069,0.301-0.12,0.489-0.148c0.19-0.031,0.384-0.048,0.58-0.048c0.197,0,0.39,0.02,0.58,0.054
			c0.189,0.031,0.358,0.083,0.5,0.143c0.303,0.134,0.564,0.314,0.786,0.545c0.219,0.231,0.395,0.502,0.523,0.812
			c0.037,0.085,0.067,0.169,0.099,0.249c0.024,0.083,0.052,0.164,0.083,0.25c0.021,0.085,0.039,0.171,0.05,0.261
			c0.012,0.087,0.026,0.175,0.04,0.258c0.008,0.026,0.013,0.051,0.013,0.079c0,0.025,0.003,0.051,0.013,0.074
			c0.014,0.046,0.017,0.09,0.005,0.134C182.351,36.488,182.353,36.534,182.367,36.578 M181.356,36.881
			c0.014-0.042,0.019-0.085,0.011-0.141c-0.009-0.053-0.011-0.103-0.011-0.15c0-0.132-0.006-0.254-0.02-0.37
			c-0.009-0.116-0.035-0.221-0.074-0.313c-0.02-0.076-0.039-0.146-0.055-0.208s-0.039-0.122-0.07-0.184
			c-0.083-0.194-0.195-0.374-0.342-0.538c-0.142-0.167-0.308-0.294-0.498-0.377c-0.06-0.025-0.12-0.047-0.177-0.064
			c-0.056-0.019-0.117-0.037-0.176-0.053c-0.083-0.024-0.166-0.038-0.25-0.042c-0.083-0.002-0.176-0.005-0.273-0.005
			c-0.039,0.007-0.073,0.014-0.103,0.016c-0.03,0.005-0.065,0.007-0.103,0.007c-0.068,0.018-0.133,0.033-0.199,0.049
			c-0.063,0.017-0.127,0.037-0.186,0.067c-0.259,0.108-0.464,0.268-0.615,0.482c-0.151,0.213-0.273,0.46-0.367,0.745
			c-0.026,0.086-0.049,0.169-0.056,0.258c-0.006,0.085-0.021,0.173-0.045,0.265c-0.007,0.037-0.007,0.074,0,0.104
			c0.008,0.03,0.004,0.065-0.01,0.106c-0.009,0.037-0.015,0.095-0.015,0.167c0,0.074,0.006,0.129,0.015,0.166v0.095
			c0.008,0.03,0.01,0.063,0.01,0.092c0,0.03,0.004,0.059,0.011,0.081c0.007,0.023,0.013,0.049,0.013,0.076
			c0,0.025,0.004,0.051,0.011,0.074c0.016,0.063,0.029,0.125,0.04,0.188c0.013,0.06,0.024,0.121,0.041,0.185
			c0.081,0.261,0.197,0.485,0.346,0.672c0.148,0.186,0.333,0.337,0.552,0.462c0.07,0.039,0.142,0.067,0.215,0.088
			c0.076,0.019,0.157,0.041,0.24,0.064c0.037,0.014,0.075,0.019,0.109,0.016c0.032-0.004,0.068-0.002,0.105,0.005
			c0.032,0.01,0.065,0.012,0.104,0.012h0.101h0.103c0.029-0.008,0.057-0.012,0.081-0.012c0.022,0,0.049-0.005,0.079-0.012
			c0.061-0.013,0.116-0.028,0.171-0.039c0.053-0.011,0.109-0.03,0.171-0.053c0.234-0.1,0.425-0.233,0.569-0.397
			c0.144-0.169,0.264-0.372,0.362-0.609c0.039-0.108,0.067-0.22,0.085-0.33c0.02-0.113,0.044-0.227,0.075-0.342
			c0.016-0.039,0.02-0.074,0.018-0.111c-0.005-0.034-0.002-0.069,0.006-0.108V36.881z"/>
		<path clip-path="url(#SVGID_4_)" fill="#000351" d="M183.268,33.729c0.097,0,0.213,0,0.34-0.005
			c0.131-0.004,0.223,0.014,0.286,0.053c0.06,0.037,0.103,0.088,0.132,0.151c0.024,0.06,0.054,0.127,0.083,0.195
			c0.039,0.103,0.072,0.201,0.103,0.302c0.031,0.101,0.065,0.201,0.103,0.302c0.039,0.092,0.071,0.187,0.104,0.284
			c0.028,0.096,0.063,0.19,0.103,0.283c0.036,0.085,0.065,0.173,0.092,0.267c0.021,0.092,0.051,0.184,0.09,0.275
			c0.09,0.228,0.173,0.455,0.25,0.698c0.076,0.238,0.159,0.468,0.249,0.695c0.016,0.027,0.022,0.058,0.022,0.085
			c0,0.025,0.01,0.051,0.023,0.077c0.046,0.107,0.087,0.217,0.125,0.33c0.039,0.11,0.076,0.219,0.116,0.327
			c0.021,0.056,0.043,0.111,0.065,0.168c0.024,0.059,0.063,0.096,0.115,0.111c0.062,0.024,0.107,0.003,0.143-0.063
			c0.033-0.065,0.058-0.118,0.072-0.158c0.062-0.129,0.112-0.271,0.149-0.415c0.036-0.148,0.083-0.289,0.135-0.43
			c0.07-0.179,0.13-0.355,0.183-0.538c0.054-0.181,0.118-0.355,0.194-0.526c0.007-0.04,0.019-0.091,0.033-0.151
			c0.032-0.067,0.057-0.143,0.08-0.214c0.022-0.074,0.047-0.141,0.069-0.204c0.015-0.036,0.024-0.072,0.032-0.103
			c0.01-0.03,0.021-0.065,0.034-0.107c0.037-0.092,0.072-0.187,0.097-0.28c0.025-0.098,0.059-0.192,0.099-0.284
			c0.015-0.037,0.024-0.074,0.032-0.106c0.009-0.027,0.02-0.064,0.033-0.104c0.03-0.07,0.059-0.14,0.081-0.213
			c0.024-0.074,0.046-0.146,0.07-0.216c0.02-0.06,0.041-0.124,0.059-0.191c0.022-0.064,0.05-0.122,0.089-0.166
			c0.054-0.071,0.125-0.108,0.22-0.115c0.096-0.01,0.201-0.014,0.313-0.014c0.061,0,0.119,0.002,0.176,0.007
			c0.058,0.005,0.105,0.018,0.143,0.041c0.067,0.047,0.085,0.118,0.058,0.22c-0.031,0.1-0.058,0.175-0.081,0.231
			c-0.007,0.016-0.014,0.029-0.016,0.046c-0.004,0.016-0.011,0.032-0.018,0.046c-0.083,0.217-0.167,0.434-0.25,0.656
			c-0.083,0.219-0.166,0.437-0.251,0.652c-0.022,0.063-0.042,0.119-0.057,0.169c-0.016,0.052-0.035,0.103-0.057,0.157
			c-0.062,0.152-0.12,0.313-0.176,0.469c-0.057,0.157-0.115,0.314-0.177,0.47c-0.222,0.532-0.425,1.068-0.613,1.608
			c-0.192,0.541-0.396,1.077-0.614,1.612c-0.016,0.037-0.03,0.079-0.04,0.12c-0.013,0.042-0.025,0.086-0.042,0.134
			c-0.12,0.284-0.249,0.569-0.384,0.85c-0.14,0.282-0.328,0.502-0.572,0.654c-0.083,0.048-0.166,0.085-0.251,0.11
			c-0.081,0.028-0.177,0.054-0.284,0.077c-0.037,0.014-0.076,0.018-0.118,0.011c-0.041-0.009-0.085-0.009-0.129,0
			c-0.062,0.014-0.123,0.014-0.184,0c-0.031-0.009-0.068-0.011-0.114-0.011c-0.06-0.015-0.118-0.03-0.175-0.046
			c-0.058-0.017-0.103-0.05-0.132-0.094c-0.037-0.048-0.061-0.104-0.063-0.169c-0.004-0.065-0.007-0.136-0.007-0.214
			c0-0.056,0.003-0.105,0.007-0.157c0.003-0.048,0.018-0.09,0.042-0.119c0.051-0.087,0.145-0.109,0.273-0.072
			c0.083,0.017,0.173,0.024,0.271,0.024c0.098,0,0.186-0.016,0.262-0.046c0.112-0.039,0.206-0.097,0.278-0.173
			c0.072-0.078,0.136-0.166,0.188-0.261c0.052-0.097,0.101-0.201,0.143-0.31c0.039-0.106,0.085-0.215,0.129-0.322
			c0.03-0.07,0.063-0.155,0.098-0.257c0.035-0.1,0.037-0.201,0.007-0.31c-0.039-0.125-0.078-0.241-0.12-0.349
			c-0.041-0.108-0.085-0.215-0.131-0.323c-0.068-0.164-0.132-0.326-0.195-0.488c-0.057-0.164-0.12-0.32-0.179-0.473
			c-0.047-0.109-0.088-0.215-0.128-0.314c-0.036-0.099-0.076-0.206-0.113-0.313c-0.136-0.337-0.27-0.679-0.404-1.02
			c-0.132-0.339-0.265-0.678-0.403-1.02c-0.074-0.176-0.145-0.349-0.203-0.513c-0.062-0.169-0.125-0.335-0.195-0.507
			c-0.013-0.046-0.037-0.11-0.065-0.191c-0.032-0.078-0.028-0.147,0.009-0.2c0.022-0.04,0.068-0.067,0.138-0.081
			c0.014-0.01,0.033-0.012,0.051-0.007C183.235,33.74,183.25,33.737,183.268,33.729"/>
		<path clip-path="url(#SVGID_4_)" fill="#000351" d="M192.801,31.448c0.104,0,0.231-0.002,0.381-0.007
			c0.146-0.004,0.244,0.025,0.291,0.088c0.059,0.066,0.09,0.173,0.085,0.312s-0.007,0.271-0.007,0.396v1.735v2.155
			c0,0.273,0.005,0.536,0.012,0.795c0.007,0.256,0.046,0.487,0.113,0.688c0.1,0.302,0.239,0.547,0.423,0.741
			c0.181,0.193,0.413,0.353,0.691,0.473c0.083,0.042,0.171,0.066,0.262,0.079c0.093,0.009,0.183,0.026,0.274,0.051
			c0.044,0.007,0.092,0.014,0.141,0.018c0.052,0.002,0.098,0.01,0.144,0.018h0.113c0.047,0,0.095,0.001,0.143,0.006
			c0.049,0.005,0.093-0.002,0.129-0.018c0.04-0.008,0.079-0.01,0.12-0.006c0.042,0.002,0.081,0.002,0.121-0.007
			c0.09-0.022,0.177-0.044,0.261-0.058c0.083-0.013,0.166-0.041,0.249-0.083c0.289-0.113,0.516-0.266,0.677-0.45
			c0.164-0.185,0.296-0.432,0.394-0.739c0.062-0.193,0.096-0.414,0.107-0.655c0.013-0.245,0.02-0.492,0.02-0.748v-1.898v-2.005
			c0-0.131-0.002-0.279-0.007-0.448c-0.003-0.164,0.024-0.284,0.085-0.351c0.037-0.053,0.107-0.081,0.213-0.081h0.299
			c0.04,0,0.075,0.002,0.109,0.005c0.033,0.004,0.068,0.007,0.108,0.007c0.106,0.023,0.173,0.061,0.203,0.115
			c0.039,0.062,0.056,0.149,0.053,0.266c-0.005,0.118-0.007,0.223-0.007,0.314v1.598v2.409c0,0.286-0.005,0.568-0.012,0.845
			c-0.006,0.277-0.041,0.531-0.101,0.753c-0.108,0.378-0.245,0.702-0.416,0.968c-0.171,0.268-0.4,0.491-0.688,0.677
			c-0.116,0.07-0.235,0.134-0.365,0.187c-0.129,0.056-0.265,0.104-0.407,0.15c-0.069,0.024-0.138,0.04-0.206,0.051
			c-0.067,0.014-0.142,0.025-0.216,0.042c-0.075,0.016-0.153,0.025-0.232,0.025c-0.08,0-0.16,0.007-0.236,0.021h-0.135
			c-0.038,0.006-0.1,0.011-0.181,0.011c-0.083,0-0.146-0.005-0.184-0.011h-0.135c-0.054-0.014-0.109-0.019-0.167-0.016
			c-0.058,0.004-0.113-0.003-0.164-0.02h-0.092c-0.061-0.014-0.118-0.027-0.176-0.034c-0.059-0.008-0.115-0.019-0.176-0.034
			c-0.13-0.037-0.257-0.077-0.382-0.109c-0.127-0.034-0.244-0.081-0.359-0.134c-0.052-0.023-0.104-0.05-0.152-0.081
			c-0.051-0.032-0.103-0.064-0.153-0.104c-0.228-0.146-0.418-0.319-0.569-0.523c-0.152-0.198-0.281-0.435-0.387-0.704
			c-0.046-0.115-0.08-0.235-0.101-0.36c-0.023-0.123-0.051-0.25-0.08-0.384c-0.01-0.06-0.015-0.117-0.017-0.178
			c-0.006-0.058-0.013-0.117-0.02-0.18v-0.115c-0.016-0.063-0.018-0.125-0.011-0.192c0.009-0.063,0.011-0.127,0.011-0.19V35.77
			v-3.023v-0.787v-0.211c0-0.069,0.018-0.127,0.046-0.173c0.031-0.055,0.088-0.092,0.171-0.115
			C192.753,31.46,192.785,31.455,192.801,31.448"/>
		<path clip-path="url(#SVGID_4_)" fill="#000351" d="M201.059,31.448c0.137,0,0.288-0.002,0.454-0.007
			c0.167-0.004,0.294,0.025,0.377,0.088c0.061,0.046,0.117,0.112,0.172,0.201c0.053,0.09,0.101,0.169,0.146,0.239
			c0.101,0.153,0.199,0.311,0.301,0.47c0.103,0.156,0.203,0.315,0.303,0.479c0.054,0.086,0.108,0.169,0.163,0.247
			c0.057,0.081,0.111,0.164,0.166,0.252c0.228,0.37,0.461,0.739,0.693,1.104c0.236,0.366,0.471,0.736,0.704,1.108
			c0.063,0.106,0.127,0.207,0.202,0.305c0.071,0.097,0.138,0.198,0.198,0.307c0.127,0.208,0.259,0.416,0.392,0.622
			c0.132,0.205,0.264,0.406,0.393,0.606c0.037,0.063,0.087,0.137,0.143,0.228c0.057,0.087,0.127,0.133,0.21,0.133
			c0.039-0.016,0.057-0.028,0.057-0.037c0.039-0.044,0.059-0.111,0.059-0.196v-0.241v-0.917v-3.543v-0.697
			c0-0.051-0.005-0.111-0.013-0.173c-0.007-0.061-0.005-0.12,0.013-0.174v-0.128c0.014-0.031,0.022-0.06,0.026-0.092
			c0.005-0.031,0.016-0.058,0.03-0.081c0.044-0.062,0.112-0.095,0.204-0.099c0.092-0.003,0.188-0.005,0.295-0.005h0.144
			c0.049,0,0.093,0.007,0.13,0.022c0.093,0.037,0.143,0.106,0.153,0.204c0.013,0.098,0.018,0.208,0.018,0.339v1.275v4.852v0.975
			c0,0.086,0.002,0.171,0.007,0.257c0.002,0.085-0.014,0.15-0.051,0.196c-0.03,0.046-0.067,0.076-0.109,0.088
			c-0.042,0.011-0.094,0.022-0.155,0.039h-0.293h-0.28c-0.096,0-0.172-0.017-0.233-0.046c-0.062-0.023-0.107-0.063-0.141-0.116
			c-0.035-0.053-0.069-0.108-0.109-0.161c-0.061-0.093-0.122-0.19-0.188-0.289c-0.063-0.102-0.127-0.201-0.187-0.302
			c-0.275-0.418-0.542-0.832-0.808-1.241c-0.267-0.408-0.531-0.826-0.798-1.249c-0.143-0.233-0.289-0.462-0.438-0.684
			c-0.146-0.227-0.293-0.454-0.438-0.684c-0.251-0.401-0.512-0.809-0.784-1.217c-0.029-0.055-0.063-0.107-0.093-0.157
			c-0.027-0.049-0.07-0.095-0.125-0.132c-0.014-0.009-0.029-0.021-0.044-0.037c-0.015-0.014-0.034-0.018-0.057-0.012
			c-0.046,0.017-0.075,0.049-0.081,0.093c-0.007,0.049-0.019,0.092-0.033,0.142v0.08c-0.015,0.054-0.02,0.115-0.013,0.181
			c0.009,0.063,0.013,0.129,0.013,0.188v0.766v3.685v0.543c0,0.039,0,0.086,0.005,0.142c0.005,0.053-0.002,0.099-0.018,0.136v0.092
			c-0.014,0.079-0.028,0.135-0.044,0.164c-0.017,0.04-0.041,0.065-0.081,0.077c-0.036,0.011-0.078,0.022-0.124,0.039h-0.228
			c-0.107,0-0.202-0.005-0.285-0.013c-0.083-0.006-0.145-0.041-0.182-0.104c-0.039-0.046-0.057-0.108-0.057-0.191v-0.25v-0.937
			v-4.843v-1.252v-0.293c0-0.106,0.018-0.189,0.057-0.249c0.022-0.039,0.07-0.074,0.138-0.104c0.016-0.01,0.033-0.01,0.062-0.007
			C201.022,31.457,201.042,31.455,201.059,31.448"/>
		<path clip-path="url(#SVGID_4_)" fill="#000351" d="M209.33,31.471c0.053,0,0.112-0.002,0.183-0.007
			c0.065-0.002,0.133-0.002,0.198,0c0.062,0.005,0.122,0.014,0.176,0.03c0.052,0.016,0.091,0.037,0.115,0.068
			c0.044,0.055,0.068,0.131,0.07,0.228c0.005,0.097,0.008,0.196,0.008,0.295v1.123v4.471v1.355v0.318
			c0,0.113-0.02,0.199-0.059,0.262c-0.029,0.039-0.065,0.062-0.107,0.07c-0.041,0.008-0.093,0.017-0.152,0.033h-0.217
			c-0.107,0-0.203-0.005-0.296-0.012c-0.091-0.007-0.154-0.046-0.194-0.113c-0.028-0.049-0.043-0.11-0.043-0.191V39.15v-0.928
			v-4.842v-1.249c0-0.086-0.003-0.181-0.008-0.285c-0.002-0.104,0.014-0.187,0.051-0.249c0.033-0.053,0.092-0.092,0.182-0.115
			c0.018-0.008,0.032-0.01,0.047-0.008C209.3,31.479,209.313,31.478,209.33,31.471"/>
		<path clip-path="url(#SVGID_4_)" fill="#000351" d="M212.219,31.448h3.515h0.922h0.245c0.08,0,0.142,0.017,0.188,0.046
			c0.061,0.037,0.095,0.095,0.106,0.169c0.013,0.072,0.018,0.16,0.018,0.259c0,0.039,0.003,0.076,0.006,0.11
			c0.005,0.035,0,0.066-0.018,0.1c-0.029,0.125-0.096,0.189-0.2,0.203c-0.101,0.011-0.228,0.017-0.379,0.017h-1.182h-1.674
			c-0.12,0-0.25-0.003-0.39-0.006c-0.134-0.004-0.236,0.02-0.305,0.075c-0.069,0.046-0.103,0.129-0.108,0.242
			c-0.005,0.116-0.007,0.233-0.007,0.348v1.148c0,0.06-0.002,0.137-0.005,0.229c-0.005,0.093,0.003,0.174,0.018,0.233v0.093
			c0.016,0.048,0.026,0.09,0.041,0.133c0.01,0.042,0.034,0.077,0.073,0.101c0.068,0.044,0.173,0.066,0.319,0.062
			c0.143-0.004,0.268-0.007,0.374-0.007h2.048c0.068,0,0.141,0,0.222-0.004c0.078-0.005,0.159-0.005,0.238,0
			c0.079,0.004,0.153,0.013,0.217,0.03c0.065,0.016,0.109,0.041,0.133,0.081c0.035,0.044,0.058,0.104,0.058,0.173v0.232v0.125
			c0,0.039-0.01,0.076-0.026,0.104c-0.029,0.081-0.071,0.121-0.125,0.13c-0.029,0.016-0.057,0.023-0.085,0.023
			c-0.027,0-0.058,0.005-0.097,0.011c-0.03,0.01-0.063,0.012-0.097,0.007c-0.035-0.004-0.065-0.007-0.098-0.007h-0.396h-1.922
			c-0.122,0-0.264-0.001-0.428-0.004c-0.164-0.005-0.278,0.019-0.347,0.074c-0.039,0.031-0.066,0.077-0.084,0.143
			c-0.019,0.067-0.033,0.143-0.036,0.226c-0.005,0.086-0.005,0.175,0,0.262c0.003,0.088,0.005,0.169,0.005,0.237v1.993
			c0,0.132,0.005,0.273,0.013,0.431c0.009,0.151-0.02,0.27-0.079,0.346c-0.023,0.032-0.059,0.049-0.103,0.053
			c-0.046,0.005-0.091,0.012-0.138,0.028h-0.214c-0.107,0-0.206-0.005-0.299-0.013c-0.091-0.006-0.154-0.046-0.191-0.114
			c-0.031-0.046-0.046-0.109-0.046-0.192v-0.249v-0.926v-4.843v-1.252c0-0.083-0.002-0.179-0.005-0.282
			c-0.005-0.105,0.013-0.188,0.051-0.249c0.03-0.046,0.087-0.085,0.17-0.115c0.014-0.01,0.033-0.01,0.051-0.007
			C212.187,31.457,212.202,31.455,212.219,31.448"/>
		<path clip-path="url(#SVGID_4_)" fill="#000351" d="M218.806,31.463c0.053,0,0.112-0.002,0.183-0.007
			c0.066-0.002,0.133-0.002,0.198,0c0.063,0.005,0.122,0.014,0.176,0.03s0.091,0.037,0.115,0.069
			c0.046,0.054,0.068,0.13,0.073,0.227s0.005,0.196,0.005,0.295V33.2v4.471v1.355v0.318c0,0.113-0.02,0.199-0.056,0.262
			c-0.032,0.039-0.068,0.062-0.11,0.07c-0.041,0.008-0.093,0.017-0.152,0.033h-0.215c-0.109,0-0.205-0.005-0.298-0.012
			c-0.091-0.006-0.154-0.046-0.191-0.113c-0.031-0.048-0.046-0.11-0.046-0.19v-0.252v-0.928v-4.842v-1.249
			c0-0.086-0.003-0.181-0.005-0.285c-0.005-0.104,0.011-0.187,0.051-0.249c0.03-0.053,0.089-0.092,0.182-0.114
			c0.015-0.008,0.029-0.011,0.044-0.008C218.775,31.473,218.788,31.47,218.806,31.463"/>
		<path clip-path="url(#SVGID_4_)" fill="#000351" d="M221.694,31.44c0.138,0,0.289-0.002,0.455-0.007s0.293,0.026,0.374,0.088
			c0.063,0.046,0.12,0.113,0.171,0.201c0.057,0.09,0.104,0.168,0.15,0.24c0.097,0.151,0.197,0.31,0.3,0.469
			c0.103,0.156,0.203,0.316,0.301,0.48c0.056,0.086,0.11,0.169,0.166,0.246c0.057,0.081,0.11,0.164,0.164,0.253
			c0.229,0.368,0.459,0.738,0.695,1.104c0.236,0.367,0.469,0.737,0.704,1.108c0.063,0.106,0.127,0.208,0.202,0.305
			c0.071,0.097,0.135,0.199,0.198,0.307c0.127,0.208,0.259,0.416,0.392,0.622c0.132,0.205,0.263,0.406,0.393,0.607
			c0.037,0.062,0.085,0.136,0.142,0.226c0.057,0.088,0.127,0.134,0.21,0.134c0.04-0.016,0.057-0.027,0.057-0.036
			c0.037-0.044,0.06-0.111,0.06-0.196v-0.243v-0.917v-3.542V32.19c0-0.05-0.005-0.109-0.013-0.173
			c-0.01-0.06-0.005-0.12,0.013-0.173v-0.127c0.014-0.032,0.021-0.061,0.026-0.092c0.002-0.033,0.015-0.059,0.03-0.081
			c0.044-0.063,0.111-0.096,0.204-0.101c0.089-0.002,0.188-0.004,0.294-0.004h0.144c0.05,0,0.091,0.007,0.131,0.023
			c0.092,0.037,0.143,0.105,0.153,0.203c0.013,0.097,0.018,0.208,0.018,0.34v1.273v4.853v0.975c0,0.085,0.002,0.171,0.007,0.256
			c0.002,0.086-0.016,0.15-0.051,0.197c-0.033,0.046-0.069,0.076-0.111,0.088s-0.093,0.022-0.153,0.039h-0.296h-0.279
			c-0.095,0-0.171-0.017-0.232-0.046c-0.061-0.023-0.106-0.063-0.142-0.116c-0.033-0.053-0.07-0.107-0.107-0.162
			c-0.062-0.092-0.122-0.188-0.188-0.288c-0.063-0.102-0.127-0.2-0.188-0.303c-0.273-0.418-0.54-0.831-0.807-1.24
			c-0.266-0.408-0.53-0.826-0.797-1.249c-0.142-0.233-0.288-0.462-0.438-0.684c-0.148-0.226-0.293-0.455-0.438-0.683
			c-0.252-0.402-0.515-0.81-0.784-1.219c-0.03-0.055-0.063-0.105-0.094-0.155c-0.028-0.049-0.07-0.096-0.124-0.132
			c-0.016-0.011-0.029-0.021-0.044-0.037c-0.016-0.015-0.037-0.019-0.057-0.013c-0.047,0.017-0.075,0.05-0.081,0.094
			c-0.007,0.048-0.02,0.092-0.036,0.141v0.08c-0.013,0.054-0.017,0.116-0.01,0.181c0.008,0.064,0.01,0.129,0.01,0.189v0.764v3.687
			v0.543c0,0.039,0.003,0.085,0.008,0.141c0.002,0.053-0.003,0.099-0.018,0.136v0.092c-0.016,0.079-0.031,0.135-0.044,0.164
			c-0.018,0.039-0.042,0.065-0.081,0.077c-0.037,0.012-0.078,0.022-0.125,0.039H221.9c-0.108,0-0.203-0.005-0.286-0.012
			s-0.144-0.042-0.181-0.104c-0.039-0.046-0.057-0.108-0.057-0.191v-0.249v-0.938v-4.842v-1.252v-0.293
			c0-0.106,0.018-0.19,0.057-0.25c0.021-0.039,0.07-0.073,0.136-0.103c0.018-0.011,0.035-0.011,0.063-0.009
			C221.658,31.449,221.678,31.447,221.694,31.44"/>
	</g>
</g>
</svg>
